{
    "workbench.iconTheme": "catppuccin-latte",
    "workbench.colorTheme": "Catppuccin Latte",
    "editor.fontFamily": "'CaskaydiaCove NFM'",
    "editor.fontSize": 16,
    "terminal.integrated.fontFamily": "'CaskaydiaCove NFM'",
    "terminal.integrated.fontSize": 16,
    "terminal.integrated.defaultProfile.windows": "PowerShell",
    "terminal.integrated.profiles.windows": {
        "PowerShell": {
            "source": "PowerShell",
            "icon": "terminal-powershell"
        },
        "Git Bash": {
            "source": "Git Bash"
        }
    },
    "terminal.integrated.defaultProfile.osx": "zsh",
    "terminal.integrated.profiles.osx": {
        "zsh": {
            "path": "zsh",
            "args": [
                "-l"
            ]
        },
        "fish": {
            "path": "fish",
            "args": [
                "-l"
            ]
        },
        "tmux": {
            "path": "tmux",
            "icon": "terminal-tmux",
            "args": ["new-session", "-A", "-s", "codium"]
        },
        "pwsh": {
            "path": "pwsh",
            "icon": "terminal-powershell"
        }
    },
    "terminal.integrated.defaultProfile.linux": "zsh",
    "terminal.integrated.profiles.linux": {
        "bash": {
            "path": "bash",
            "icon": "terminal-bash",
            "args": [
                "-l"
            ]
        },
        "zsh": {
            "path": "zsh",
            "args": [
                "-l"
            ]
        },
        "fish": {
            "path": "fish",
            "args": [
                "-l"
            ]
        },
        "tmux": {
            "path": "tmux",
            "icon": "terminal-tmux",
            "args": ["new-session", "-A", "-s", "codium"]
        },
        "pwsh": {
            "path": "pwsh",
            "icon": "terminal-powershell"
        }
    },
    "markdown.preview.fontFamily": "'CaskaydiaCove NFM'",
    "markdown.preview.fontSize": 16
}